Projeto/simulation/qsim/cachorro.msim.vcd
$comment
	File created using the following command:
		vcd file cachorro.msim.vcd -direction
$end
$date
	Mon Nov 11 19:48:07 2024
$end
$version
	Questa Intel Starter FPGA Edition Version 2023.3
$end
$timescale
	1ps
$end

$scope module contador_3bits_vlg_vec_tst $end
$var wire 1 ! Q0 $end
$var wire 1 " Q1 $end
$var wire 1 # Q2 $end

$scope module i1 $end
$var wire 1 $ gnd $end
$var wire 1 % vcc $end
$var tri1 1 & devclrn $end
$var tri1 1 ' devpor $end
$var wire 1 ( clk~combout $end
$var wire 1 ) rst_but~combout $end
$var wire 1 * jk_inst_Q1|q~regout $end
$var wire 1 + jk_inst_Q2|q~regout $end
$var wire 1 , or_rst~combout $end
$var wire 1 - jk_inst_Q0|q~regout $end
$upscope $end
$upscope $end
$enddefinitions $end
#0
$dumpvars
x!
x"
x#
0$
1%
1&
1'
x(
x)
0*
0+
x,
0-
$end
#1132
0(
1)
#3130
0"
#3754
0#
#3771
0!
#5245
0,
#21132
1(
#23637
1-
#27408
1!
#41132
0(
#61132
1(
#63637
0-
#66915
1*
#67408
0!
#70045
1"
#81132
0(
#101132
1(
#103637
1-
#107408
1!
#121132
0(
#141132
1(
#143637
0-
#146915
0*
#147408
0!
#149075
1+
#150045
0"
#152829
1#
#161132
0(
#181132
1(
#183637
1-
#187408
1!
#201132
0(
#221132
1(
#223637
0-
#226915
1*
#227408
0!
#228028
1,
#230045
1"
#232540
0*
0+
#233653
0,
#235670
0"
#236294
0#
#241132
0(
#261132
1(
#263637
1-
#267408
1!
#281132
0(
#301132
1(
#303637
0-
#306915
1*
#307408
0!
#310045
1"
#321132
0(
#341132
1(
#343637
1-
#347408
1!
#361132
0(
#381132
1(
#383637
0-
#386915
0*
#387408
0!
#389075
1+
#390045
0"
#392829
1#
#401132
0(
#421132
1(
#423637
1-
#427408
1!
#441132
0(
#461132
1(
#463637
0-
#466915
1*
#467408
0!
#468028
1,
#470045
1"
#472540
0*
0+
#473653
0,
#475670
0"
#476294
0#
#481132
0(
#501132
1(
#503637
1-
#507408
1!
#521132
0(
#531132
0)
#535245
1,
#539757
0-
#541132
1(
#543528
0!
#561132
0(
#581132
1(
#591132
1)
#595245
0,
#601132
0(
#621132
1(
#623637
1-
#627408
1!
#641132
0(
#661132
1(
#663637
0-
#666915
1*
#667408
0!
#670045
1"
#681132
0(
#701132
1(
#703637
1-
#707408
1!
#721132
0(
#741132
1(
#743637
0-
#746915
0*
#747408
0!
#749075
1+
#750045
0"
#752829
1#
#761132
0(
#781132
1(
#783637
1-
#787408
1!
#801132
0(
#821132
1(
#823637
0-
#826915
1*
#827408
0!
#828028
1,
#830045
1"
#832540
0*
0+
#833653
0,
#835670
0"
#836294
0#
#841132
0(
#861132
1(
#863637
1-
#867408
1!
#881132
0(
#901132
1(
#903637
0-
#906915
1*
#907408
0!
#910045
1"
#921132
0(
#941132
1(
#943637
1-
#947408
1!
#961132
0(
#981132
1(
#983637
0-
#986915
0*
#987408
0!
#989075
1+
#990045
0"
#992829
1#
