Projeto/simulation/qsim/cachorro.msim.vcd
$comment
	File created using the following command:
		vcd file cachorro.msim.vcd -direction
$end
$date
	Wed Nov  6 02:14:49 2024
$end
$version
	Questa Intel Starter FPGA Edition Version 2023.3
$end
$timescale
	1ps
$end

$scope module contador_3bits_vlg_vec_tst $end
$var wire 1 ! Q0 $end
$var wire 1 " Q1 $end
$var wire 1 # Q2 $end
$var wire 1 $ reset $end

$scope module i1 $end
$var wire 1 % gnd $end
$var wire 1 & vcc $end
$var tri1 1 ' devclrn $end
$var tri1 1 ( devpor $end
$var wire 1 ) clk~combout $end
$var wire 1 * jk_inst_Q1|q~regout $end
$var wire 1 + jk_inst_Q2|q~regout $end
$var wire 1 , and_rst~combout $end
$var wire 1 - jk_inst_Q0|q~regout $end
$upscope $end
$upscope $end
$enddefinitions $end
#0
$dumpvars
x!
x"
x#
x$
0%
1&
1'
1(
x)
0*
0+
x,
0-
$end
#1133
0,
#1163
0)
#3754
0#
#4238
0!
#4466
0"
#26163
1)
#51163
0)
#76163
1)
#101163
0)
#126163
1)
#151163
0)
#176163
1)
#201163
0)
#226163
1)
#251163
0)
#276163
1)
#301163
0)
#326163
1)
#351163
0)
#376163
1)
#401163
0)
#426163
1)
#451163
0)
#476163
1)
#501163
0)
#526163
1)
#551163
0)
#576163
1)
#601163
0)
#626163
1)
#651163
0)
#676163
1)
#701163
0)
#726163
1)
#751163
0)
#776163
1)
#801163
0)
#826163
1)
#851163
0)
#876163
1)
#901163
0)
#926163
1)
#951163
0)
#976163
1)
